Chapter 5 Working through a dataset | Become a disease detective: Solve an outbreak
…
5.3 Different kinds of data

In outbreak_data we have several kinds of information and it’s important to identify what these are !

How would you describe what data we have in Firstname?

How is this different to Weight ?

What are some terms we could use to define these ?

To look specifically at one column we can select the column using a pipe or %>%.

> outbreak_data %>% select(height)

# A tibble: 29 × 1
   height
    <dbl>
 1   61.7
 2   60  
 3   60.5
 4   61.7
 5   62  
 6   62.3
 7   60.9
 8   60.3
 9   62.7
10   61  
# ℹ 19 more rows
…
